%YAML 1.1
%TAG !u! tag:unity3d.com,2011:
--- !u!114 &11400000
MonoBehaviour:
  m_ObjectHideFlags: 0
  m_CorrespondingSourceObject: {fileID: 0}
  m_PrefabInstance: {fileID: 0}
  m_PrefabAsset: {fileID: 0}
  m_GameObject: {fileID: 0}
  m_Enabled: 1
  m_EditorHideFlags: 0
  m_Script: {fileID: 11500000, guid: 638b3461c29a75c498ea792e25915a26, type: 3}
  m_Name: New Tank
  m_EditorClassIdentifier: 
  Speed: 0
  MaxSpeed: 0
  Acceleration: 0
  Sprite: {fileID: 21300000, guid: b353dbbec5655614c8e9d59672819959, type: 3}
  Animation: {fileID: 0}
