%YAML 1.1
%TAG !u! tag:unity3d.com,2011:
--- !u!74 &7400000
AnimationClip:
  m_ObjectHideFlags: 0
  m_CorrespondingSourceObject: {fileID: 0}
  m_PrefabInstance: {fileID: 0}
  m_PrefabAsset: {fileID: 0}
  m_Name: Water
  serializedVersion: 6
  m_Legacy: 0
  m_Compressed: 0
  m_UseHighQualityCurve: 1
  m_RotationCurves: []
  m_CompressedRotationCurves: []
  m_EulerCurves: []
  m_PositionCurves: []
  m_ScaleCurves: []
  m_FloatCurves: []
  m_PPtrCurves:
  - curve:
    - time: 0
      value: {fileID: 8509550459451208454, guid: 5180760439e3e1d4c8c228437da3dc8c, type: 3}
    - time: 0.083333336
      value: {fileID: 3559705528278350927, guid: 5180760439e3e1d4c8c228437da3dc8c, type: 3}
    - time: 0.16666667
      value: {fileID: -4124057691748712743, guid: 5180760439e3e1d4c8c228437da3dc8c, type: 3}
    - time: 0.25
      value: {fileID: -7064220622572970029, guid: 5180760439e3e1d4c8c228437da3dc8c, type: 3}
    - time: 0.33333334
      value: {fileID: -2740290441555968558, guid: 5180760439e3e1d4c8c228437da3dc8c, type: 3}
    - time: 0.41666666
      value: {fileID: 7149751655148466542, guid: 5180760439e3e1d4c8c228437da3dc8c, type: 3}
    - time: 0.5
      value: {fileID: -7655527456229970072, guid: 5180760439e3e1d4c8c228437da3dc8c, type: 3}
    - time: 0.5833333
      value: {fileID: -1984912068192422301, guid: 5180760439e3e1d4c8c228437da3dc8c, type: 3}
    - time: 0.6666667
      value: {fileID: -277465505295718648, guid: 5180760439e3e1d4c8c228437da3dc8c, type: 3}
    - time: 0.75
      value: {fileID: 9222073198021860894, guid: 5180760439e3e1d4c8c228437da3dc8c, type: 3}
    - time: 0.8333333
      value: {fileID: 3991568953898065832, guid: 5180760439e3e1d4c8c228437da3dc8c, type: 3}
    - time: 0.9166667
      value: {fileID: 2673405975860536578, guid: 5180760439e3e1d4c8c228437da3dc8c, type: 3}
    - time: 1
      value: {fileID: 6886954874036816709, guid: 5180760439e3e1d4c8c228437da3dc8c, type: 3}
    - time: 1.0833334
      value: {fileID: -8209864517686610857, guid: 5180760439e3e1d4c8c228437da3dc8c, type: 3}
    - time: 1.1666666
      value: {fileID: 8664258913517867861, guid: 5180760439e3e1d4c8c228437da3dc8c, type: 3}
    - time: 1.25
      value: {fileID: -1544587663037173727, guid: 5180760439e3e1d4c8c228437da3dc8c, type: 3}
    attribute: m_Sprite
    path: 
    classID: 212
    script: {fileID: 0}
  m_SampleRate: 12
  m_WrapMode: 0
  m_Bounds:
    m_Center: {x: 0, y: 0, z: 0}
    m_Extent: {x: 0, y: 0, z: 0}
  m_ClipBindingConstant:
    genericBindings:
    - serializedVersion: 2
      path: 0
      attribute: 0
      script: {fileID: 0}
      typeID: 212
      customType: 23
      isPPtrCurve: 1
    pptrCurveMapping:
    - {fileID: 8509550459451208454, guid: 5180760439e3e1d4c8c228437da3dc8c, type: 3}
    - {fileID: 3559705528278350927, guid: 5180760439e3e1d4c8c228437da3dc8c, type: 3}
    - {fileID: -4124057691748712743, guid: 5180760439e3e1d4c8c228437da3dc8c, type: 3}
    - {fileID: -7064220622572970029, guid: 5180760439e3e1d4c8c228437da3dc8c, type: 3}
    - {fileID: -2740290441555968558, guid: 5180760439e3e1d4c8c228437da3dc8c, type: 3}
    - {fileID: 7149751655148466542, guid: 5180760439e3e1d4c8c228437da3dc8c, type: 3}
    - {fileID: -7655527456229970072, guid: 5180760439e3e1d4c8c228437da3dc8c, type: 3}
    - {fileID: -1984912068192422301, guid: 5180760439e3e1d4c8c228437da3dc8c, type: 3}
    - {fileID: -277465505295718648, guid: 5180760439e3e1d4c8c228437da3dc8c, type: 3}
    - {fileID: 9222073198021860894, guid: 5180760439e3e1d4c8c228437da3dc8c, type: 3}
    - {fileID: 3991568953898065832, guid: 5180760439e3e1d4c8c228437da3dc8c, type: 3}
    - {fileID: 2673405975860536578, guid: 5180760439e3e1d4c8c228437da3dc8c, type: 3}
    - {fileID: 6886954874036816709, guid: 5180760439e3e1d4c8c228437da3dc8c, type: 3}
    - {fileID: -8209864517686610857, guid: 5180760439e3e1d4c8c228437da3dc8c, type: 3}
    - {fileID: 8664258913517867861, guid: 5180760439e3e1d4c8c228437da3dc8c, type: 3}
    - {fileID: -1544587663037173727, guid: 5180760439e3e1d4c8c228437da3dc8c, type: 3}
  m_AnimationClipSettings:
    serializedVersion: 2
    m_AdditiveReferencePoseClip: {fileID: 0}
    m_AdditiveReferencePoseTime: 0
    m_StartTime: 0
    m_StopTime: 1.3333334
    m_OrientationOffsetY: 0
    m_Level: 0
    m_CycleOffset: 0
    m_HasAdditiveReferencePose: 0
    m_LoopTime: 1
    m_LoopBlend: 0
    m_LoopBlendOrientation: 0
    m_LoopBlendPositionY: 0
    m_LoopBlendPositionXZ: 0
    m_KeepOriginalOrientation: 0
    m_KeepOriginalPositionY: 1
    m_KeepOriginalPositionXZ: 0
    m_HeightFromFeet: 0
    m_Mirror: 0
  m_EditorCurves: []
  m_EulerEditorCurves: []
  m_HasGenericRootTransform: 0
  m_HasMotionFloatCurves: 0
  m_Events: []
